<?xml version="1.0" encoding="UTF-8"?>
<!--
SPDX-FileCopyrightText: Metadata Cleaner contributors
SPDX-License-Identifier: CC-BY-SA-4.0
-->
<svg width="64" height="64" version="1.1" viewBox="0 0 64 64" xmlns="http://www.w3.org/2000/svg">
 <g id="fingerprint" fill="none" stroke="#000" stroke-linecap="round" stroke-linejoin="round" stroke-width="4">
  <path d="m27.436 30.165c6.7955 17.806 21.294 26.505 21.294 26.505"/>
  <path d="m39.771 60.763c-14.951-11.876-29.694-35.661-14.673-39.407 12.74-3.1773 8.6314 16.753 30.179 29.31"/>
  <path d="m28.119 61.534c-19.876-18.871-22.79-39.493-9.7354-46.22 24.846-12.803 24.16 20.272 41.166 28.286"/>
  <path d="m12.049 55.985c-9.7769-13.57-17.498-38.849 3.8255-48.871 30.383-14.28 34.919 20.834 45.824 27.518"/>
 </g>
</svg>
