<?xml version="1.0" encoding="UTF-8"?>
<!--
SPDX-FileCopyrightText: Metadata Cleaner contributors
SPDX-License-Identifier: CC0-1.0
-->
<svg width="16" height="16" viewBox="0 0 16 16" xmlns="http://www.w3.org/2000/svg">
 <path d="M8 1a7 7 0 100 14A7 7 0 008 1zM6 5c.559 0 1.031.473 1.031 1.031V7c0 .558-.472 1-1.03 1-.56 0-1-.442-1-1v-.969C5 5.473 5.44 5 6 5zm4 0c.559 0 1 .473 1 1.031V7c0 .558-.441 1-1 1-.558 0-1-.442-1-1v-.969C9 5.473 9.442 5 10 5zM3 9.07c.997.637 4.017.917 5 .917.984 0 3.805.051 5-.917v.5c0 .68-1.744 1.404-5 1.404-3.256 0-5-.872-5-1.404z"/>
</svg>
